"Entry Name","% Identical","Alignment Length","Mismatches","Gaps","E-value","Bit-score"
"DUOX_DROME",92.485,1477,111,0,0,2912
"CATA_DROME",76.342,503,93,1,0,828
"TRXR1_DROME",74.707,427,104,3,0,671
"PXDN_DROME",73.265,1081,270,7,0,1697
"PERO_DROME",74.187,461,101,1,0,708
"TRXR2_DROME",70.561,428,123,3,0,639
"GSTS1_DROME",92.271,207,16,0,1.03e-141,395
"PRDX1_DROME",79.381,194,40,0,3.36e-120,337
"PERC_DROME",36.627,587,340,13,7.23e-114,359
"PERC_ANOGA",36.45,631,358,18,1.88e-108,343
