"Entry Name","% Identical","Alignment Length","Mismatches","Gaps","E-value","Bit-score"
"T23O_DROME",78.788,396,64,3,0,635
"CP307_DROME",55.923,574,209,7,0,652
"CP314_DROME",68.288,555,160,4,0,776
"E75BA_DROME",62.303,1016,180,25,0,1081
"E75BB_DROME",62.402,1016,179,25,0,1079
"E75BC_DROME",62.402,1016,179,25,0,1075
"APLP_DROME",40.106,3406,1908,48,0,2544
"GCY8E_DROME",64.391,1157,247,25,0,1362
"DUOX_DROME",92.485,1477,111,0,0,2912
"CATA_DROME",76.342,503,93,1,0,828
"NOS_DROME",68.476,571,124,4,0,805
"GCYDB_DROME",67.846,622,155,3,0,887
"PXDN_DROME",73.265,1081,270,7,0,1697
"CP302_DROME",63.071,482,164,3,0,640
"GCYDA_DROME",66.074,619,168,2,0,859
"CP6G1_DROME",56.773,502,209,3,0,603
"PERO_DROME",74.187,461,101,1,0,708
"SUOX_DROME",63.781,566,184,7,0,729
"T23O_DROSI",78.788,396,64,3,0,635
"T23O_AEDAE",72.843,394,87,2,0,593
"T23O_DROPE",78.535,396,66,2,0,636
"T23O_DROWI",79.798,396,61,2,0,649
"T23O_DROVI",79.293,396,63,2,0,638
"T23O_MAYDE",65.657,396,116,3,0,538
"T23O_DROYA",78.788,396,64,3,0,634
"T23O_DROGR",78.535,396,66,2,0,634
"T23O_ANOGA",72.589,394,89,2,0,585
"T23O_DROMO",79.293,396,63,2,0,643
"T23O_DROAN",79.293,396,63,2,0,645
"C4AC2_DROME",54.89,501,215,4,0,554
"CP6A8_DROME",48.919,509,247,4,0,517
"CP6V1_DROME",63.127,518,188,3,0,697
"CP9F2_DROME",61.272,519,191,5,0,667
"C12B1_DROAC",53.846,481,216,1,0,558
"C4AC3_DROME",55.131,497,216,3,0,563
"CP4C3_DROME",82.663,323,55,1,0,555
"CP6G2_DROME",60.685,496,187,4,0,632
"CP6G2_DROME",60.887,496,186,4,0,632
"CP301_DROME",83.806,494,79,1,0,873
"C4G15_DROME",77.68,569,116,2,0,932
"C6A13_DROME",53.045,509,217,4,0,574
"C6A13_DROME",52.063,509,224,4,0,574
"C6A14_DROME",51.961,510,239,4,0,577
"C12B2_DROME",53.689,488,220,1,0,580
"CP305_DROME",58.498,506,202,5,0,632
"CYB5R_DROME",65.589,433,147,1,0,616
"CP4S3_DROME",57.883,463,192,2,0,566
"C4AC1_DROME",54.617,509,224,3,0,583
"CP303_DROME",67.465,501,160,3,0,725
"CP304_DROME",63.992,486,170,1,0,678
"NOS_ANOST",65.594,497,155,3,0,707
"C49A1_DROME",66.29,442,146,1,0,616
"C4AA1_DROME",65.235,489,166,4,0,691
"CP4D2_DROME",54.455,505,222,3,0,549
"CP4G1_DROME",61.749,549,200,4,0,689
"GCYH_DROME",82.589,672,110,4,0,1152
"T23O_DROER",78.03,396,67,3,0,631
"T23O_DROPS",78.535,396,66,2,0,636
"T23O_DROSE",78.788,396,64,3,0,635
