"Entry Name","% Identical","Alignment Length","Mismatches","Gaps","E-value","Bit-score"
"ABCB7_HUMAN",56.502,669,264,8,0,736
"MRP5_HUMAN",32.743,1356,806,29,0,687
"FLVC2_HUMAN",41.729,266,113,3,7.09e-64,207
"FLVC1_HUMAN",40.149,269,120,4,1.13e-61,202
"PGRC2_HUMAN",51.572,159,66,5,3.55e-51,164
"PCFT_HUMAN",23.834,386,249,7,2.92e-17,83.2
"HEMO_HUMAN",31.746,126,73,6,5.74e-10,60.1
