Entry Name,E-value,Bit-score
HemeTransmembraneTransporterActivity_Human,,
ABCB7 (Human),0.00e+00,736.0
MRP5 (Human),0.00e+00,687.0
FLVC2 (Human),7.09e-64,207.0
FLVC1 (Human),1.13e-61,202.0
PGRC2 (Human),3.55e-51,164.0
PCFT (Human),2.92e-17,83.2
HEMO (Human),5.74e-10,60.1
AntioxidantActivity,,
DUOX (Drome),0.00e+00,2912.0
CATA (Drome),0.00e+00,828.0
TRXR1 (Drome),0.00e+00,671.0
PXDN (Drome),0.00e+00,1697.0
PERO (Drome),0.00e+00,708.0
TRXR2 (Drome),0.00e+00,639.0
GSTS1 (Drome),1.03e-141,395.0
PRDX1 (Drome),3.36e-120,337.0
PERC (Drome),7.23e-114,359.0
PERC (Anoga),1.88e-108,343.0
HemeBindingActivity,,
T23O (Drome),0.00e+00,635.0
CP307 (Drome),0.00e+00,652.0
CP314 (Drome),0.00e+00,776.0
E75BA (Drome),0.00e+00,1081.0
E75BB (Drome),0.00e+00,1079.0
E75BC (Drome),0.00e+00,1075.0
APLP (Drome),0.00e+00,2544.0
GCY8E (Drome),0.00e+00,1362.0
DUOX (Drome),0.00e+00,2912.0
CATA (Drome),0.00e+00,828.0
HemeOxygenaseActivity_Human,,
HMOX1 (Human),2.25e-16,76.3
HMOX2 (Human),5.31e-14,69.7
Hemostasis,,
PPO2 (Drome),0.00e+00,1127.0
GLT (Drome),0.00e+00,607.0
GlutathioneTransferaseActivity,,
MAAI2 (Drome),3.20e-158,436.0
GST (Musdo),3.37e-145,404.0
GSTS1 (Drome),1.03e-141,395.0
GSTT1 (Luccu),6.20e-135,376.0
GSTT1 (Musdo),1.39e-131,368.0
GSTT1 (Drose),1.21e-123,348.0
GSTT1 (Drosi),2.69e-123,347.0
GSTT1 (Droya),1.66e-122,345.0
GSTT1 (Droer),3.58e-122,344.0
GSTD1 (Drome),1.18e-121,343.0
