\relax 
\abx@aux@refcontext{nty/global//global/global}
\abx@aux@cite{tsetse12009}
\abx@aux@segm{0}{0}{tsetse12009}
\abx@aux@cite{Connor1994}
\abx@aux@segm{0}{0}{Connor1994}
\abx@aux@cite{Mehlhorn2008}
\abx@aux@segm{0}{0}{Mehlhorn2008}
\abx@aux@cite{Toh2010}
\abx@aux@segm{0}{0}{Toh2010}
\abx@aux@segm{0}{0}{tsetse12009}
\@writefile{toc}{\boolfalse {citerequest}\boolfalse {citetracker}\boolfalse {pagetracker}\boolfalse {backtracker}\relax }
\@writefile{lof}{\boolfalse {citerequest}\boolfalse {citetracker}\boolfalse {pagetracker}\boolfalse {backtracker}\relax }
\@writefile{lot}{\boolfalse {citerequest}\boolfalse {citetracker}\boolfalse {pagetracker}\boolfalse {backtracker}\relax }
\@writefile{toc}{\defcounter {refsection}{0}\relax }\@writefile{toc}{\contentsline {section}{\numberline {1}Introduction}{1}}
\@writefile{toc}{\defcounter {refsection}{0}\relax }\@writefile{toc}{\contentsline {section}{\numberline {2}Methods and Experiment}{2}}
\@writefile{toc}{\defcounter {refsection}{0}\relax }\@writefile{toc}{\contentsline {subsection}{\numberline {2.1}Tsetse fly genome and genetic methods}{2}}
\@writefile{toc}{\defcounter {refsection}{0}\relax }\@writefile{toc}{\contentsline {subsection}{\numberline {2.2}Quality control and cleaning}{2}}
\@writefile{toc}{\defcounter {refsection}{0}\relax }\@writefile{toc}{\contentsline {subsection}{\numberline {2.3}Assembly of genome}{2}}
\@writefile{toc}{\defcounter {refsection}{0}\relax }\@writefile{toc}{\contentsline {subsection}{\numberline {2.4}Purging haplotigs}{2}}
\@writefile{toc}{\defcounter {refsection}{0}\relax }\@writefile{toc}{\contentsline {subsection}{\numberline {2.5}Checking assembly completeness}{2}}
\@writefile{toc}{\defcounter {refsection}{0}\relax }\@writefile{toc}{\contentsline {subsection}{\numberline {2.6}Comparing assemblies}{2}}
\abx@aux@segm{0}{0}{Toh2010}
\abx@aux@cite{Whiten2018}
\abx@aux@segm{0}{0}{Whiten2018}
\abx@aux@cite{Varfolomeev2001}
\abx@aux@segm{0}{0}{Varfolomeev2001}
\@writefile{lot}{\defcounter {refsection}{0}\relax }\@writefile{lot}{\contentsline {table}{\numberline {1}{\ignorespaces Summary of QUAST comparisons between three different assemblers before and after purging. \relax }}{3}}
\providecommand*\caption@xref[2]{\@setref\relax\@undefined{#1}}
\newlabel{Tab:QUAST_summary}{{1}{3}}
\@writefile{lof}{\defcounter {refsection}{0}\relax }\@writefile{lof}{\contentsline {figure}{\numberline {1}{\ignorespaces WTF IS FIGURE 2...\relax }}{3}}
\newlabel{Fig:BLAST_results}{{1}{3}}
\@writefile{toc}{\defcounter {refsection}{0}\relax }\@writefile{toc}{\contentsline {subsection}{\numberline {2.7}Genome annotation}{3}}
\@writefile{toc}{\defcounter {refsection}{0}\relax }\@writefile{toc}{\contentsline {subsection}{\numberline {2.8}Search for genes responsible for hematophagy}{3}}
\@writefile{toc}{\defcounter {refsection}{0}\relax }\@writefile{toc}{\contentsline {section}{\numberline {3}Results}{3}}
\gdef \LT@i {\LT@entry 
    {2}{233.5848pt}\LT@entry 
    {2}{52.54567pt}\LT@entry 
    {1}{50.82387pt}}
\abx@aux@cite{Pearson2013}
\abx@aux@segm{0}{0}{Pearson2013}
\abx@aux@cite{International_Glossina_Genome_Initiative2014}
\abx@aux@segm{0}{0}{International_Glossina_Genome_Initiative2014}
\@writefile{toc}{\defcounter {refsection}{0}\relax }\@writefile{toc}{\contentsline {section}{\numberline {4}Discussion}{4}}
\abx@aux@segm{0}{0}{Whiten2018}
\abx@aux@cite{Paes2001}
\abx@aux@segm{0}{0}{Paes2001}
\abx@aux@segm{0}{0}{Whiten2018}
\abx@aux@segm{0}{0}{Toh2010}
\abx@aux@cite{Okada2009}
\abx@aux@segm{0}{0}{Okada2009}
\abx@aux@cite{Zhou2007}
\abx@aux@segm{0}{0}{Zhou2007}
\abx@aux@cite{Pearson2020}
\abx@aux@segm{0}{0}{Pearson2020}
\global\mtcsecondpartfalse
\newlabel{LastPage}{{}{5}}
\xdef\lastpage@lastpage{5}
\gdef\lastpage@lastpageHy{}
