\relax 
\abx@aux@refcontext{nty/global//global/global}
\abx@aux@cite{PCRorig}
\abx@aux@segm{0}{0}{PCRorig}
\abx@aux@segm{0}{0}{PCRorig}
\@writefile{toc}{\boolfalse {citerequest}\boolfalse {citetracker}\boolfalse {pagetracker}\boolfalse {backtracker}\relax }
\@writefile{lof}{\boolfalse {citerequest}\boolfalse {citetracker}\boolfalse {pagetracker}\boolfalse {backtracker}\relax }
\@writefile{lot}{\boolfalse {citerequest}\boolfalse {citetracker}\boolfalse {pagetracker}\boolfalse {backtracker}\relax }
\@writefile{toc}{\defcounter {refsection}{0}\relax }\@writefile{toc}{\contentsline {section}{\numberline {1}Introduction}{1}}
\@writefile{toc}{\defcounter {refsection}{0}\relax }\@writefile{toc}{\contentsline {section}{\numberline {2}Methods and Experiment}{2}}
\@writefile{toc}{\defcounter {refsection}{0}\relax }\@writefile{toc}{\contentsline {section}{\numberline {3}Results}{3}}
\@writefile{lof}{\defcounter {refsection}{0}\relax }\@writefile{lof}{\contentsline {figure}{\numberline {1}{\ignorespaces An example figure of four nodes (labeled A, B, C, and D, respectively), which are connected by some arrows.\relax }}{5}}
\@writefile{toc}{\defcounter {refsection}{0}\relax }\@writefile{toc}{\contentsline {subsection}{\numberline {3.1}Subresults}{5}}
\@writefile{lof}{\defcounter {refsection}{0}\relax }\@writefile{lof}{\contentsline {figure}{\numberline {2}{\ignorespaces Melting Temperatures (Tm) of Oligomeric DNA Fragments. (upper) Melting Temperature against Fragment Length, color scale indicates Cytosine/Guanine Content, a black line indicates trend behaviour. (lower) Melting Temperature against Cytosine/Guanine Content, color scale indicates fragment length.\relax }}{6}}
\@writefile{toc}{\defcounter {refsection}{0}\relax }\@writefile{toc}{\contentsline {section}{\numberline {4}Discussion}{7}}
\@writefile{toc}{\defcounter {refsection}{0}\relax }\@writefile{toc}{\contentsline {subsection}{\numberline {4.1}Subsub2}{7}}
\@input{mainmatter/Appendix.aux}
\global\mtcsecondpartfalse
\newlabel{LastPage}{{}{8}}
\xdef\lastpage@lastpage{8}
\gdef\lastpage@lastpageHy{}
\abx@aux@refcontextdefaultsdone
\abx@aux@defaultrefcontext{0}{PCRorig}{nty/global//global/global}
