\relax 
\abx@aux@refcontext{nty/global//global/global}
\abx@aux@cite{ribosomal_proteins_review}
\abx@aux@segm{0}{0}{ribosomal_proteins_review}
\abx@aux@cite{ribosome_biogenesis_review}
\abx@aux@segm{0}{0}{ribosome_biogenesis_review}
\abx@aux@cite{dedicated_chaperones_for_ribosome_assembly}
\abx@aux@segm{0}{0}{dedicated_chaperones_for_ribosome_assembly}
\abx@aux@cite{RPL4_paralogs_AB}
\abx@aux@segm{0}{0}{RPL4_paralogs_AB}
\abx@aux@cite{ribosome_structure_4v88}
\abx@aux@segm{0}{0}{ribosome_structure_4v88}
\abx@aux@cite{our_main_paper}
\abx@aux@segm{0}{0}{our_main_paper}
\abx@aux@segm{0}{0}{ribosomal_proteins_review}
\abx@aux@cite{rpl4_depletion_growth_defects}
\abx@aux@segm{0}{0}{rpl4_depletion_growth_defects}
\@writefile{toc}{\boolfalse {citerequest}\boolfalse {citetracker}\boolfalse {pagetracker}\boolfalse {backtracker}\relax }
\@writefile{lof}{\boolfalse {citerequest}\boolfalse {citetracker}\boolfalse {pagetracker}\boolfalse {backtracker}\relax }
\@writefile{lot}{\boolfalse {citerequest}\boolfalse {citetracker}\boolfalse {pagetracker}\boolfalse {backtracker}\relax }
\@writefile{toc}{\defcounter {refsection}{0}\relax }\@writefile{toc}{\contentsline {section}{\numberline {1}Introduction}{1}}
\@writefile{toc}{\defcounter {refsection}{0}\relax }\@writefile{toc}{\contentsline {subsection}{\numberline {1.1}RPL4 is a crucial component of the 60S large ribosomal subunit}{1}}
\abx@aux@segm{0}{0}{our_main_paper}
\abx@aux@cite{second_paper_on_acl4_rpl4}
\abx@aux@segm{0}{0}{second_paper_on_acl4_rpl4}
\abx@aux@segm{0}{0}{our_main_paper}
\abx@aux@segm{0}{0}{our_main_paper}
\abx@aux@segm{0}{0}{our_main_paper}
\abx@aux@segm{0}{0}{second_paper_on_acl4_rpl4}
\abx@aux@segm{0}{0}{rpl4_depletion_growth_defects}
\abx@aux@segm{0}{0}{our_main_paper}
\abx@aux@segm{0}{0}{our_main_paper}
\abx@aux@segm{0}{0}{our_main_paper}
\abx@aux@segm{0}{0}{our_main_paper}
\abx@aux@segm{0}{0}{our_main_paper}
\abx@aux@cite{NCBI}
\abx@aux@segm{0}{0}{NCBI}
\abx@aux@cite{SGD}
\abx@aux@segm{0}{0}{SGD}
\abx@aux@cite{uniprot}
\abx@aux@segm{0}{0}{uniprot}
\abx@aux@cite{panther}
\abx@aux@segm{0}{0}{panther}
\@writefile{toc}{\defcounter {refsection}{0}\relax }\@writefile{toc}{\contentsline {subsection}{\numberline {1.2}Experimental Background of this Work}{2}}
\@writefile{toc}{\defcounter {refsection}{0}\relax }\@writefile{toc}{\contentsline {section}{\numberline {2}Methods}{2}}
\@writefile{toc}{\defcounter {refsection}{0}\relax }\@writefile{toc}{\contentsline {subsection}{\numberline {2.1}Previous Work}{2}}
\@writefile{toc}{\defcounter {refsection}{0}\relax }\@writefile{toc}{\contentsline {subsection}{\numberline {2.2}Procedure in Brief and Availability}{2}}
\@writefile{toc}{\defcounter {refsection}{0}\relax }\@writefile{toc}{\contentsline {subsection}{\numberline {2.3}Read Mapping}{2}}
\@writefile{toc}{\defcounter {refsection}{0}\relax }\@writefile{toc}{\contentsline {subsection}{\numberline {2.4}SNP Identification and Classification}{2}}
\abx@aux@cite{PSOPIA}
\abx@aux@segm{0}{0}{PSOPIA}
\@writefile{toc}{\defcounter {refsection}{0}\relax }\@writefile{toc}{\contentsline {subsection}{\numberline {2.5}Data Analysis}{3}}
\@writefile{toc}{\defcounter {refsection}{0}\relax }\@writefile{toc}{\contentsline {subsubsection}{\numberline {2.5.1}Search Strategy}{3}}
\@writefile{lof}{\defcounter {refsection}{0}\relax }\@writefile{lof}{\contentsline {figure}{\numberline {1}{\ignorespaces  Summary of raw data reads and identified variants. (A) Number of reads before and after trimming with fastp. Some four million reads pre-filtering were reduced to around 3.3 million post-filtering. (B) Regions of identified variants over the entire genome. Plotted are total variant counts. (C) Types of identified variants over the entire genome. Shown are variant types representing at least 10\% of total variants. \relax }}{4}}
\providecommand*\caption@xref[2]{\@setref\relax\@undefined{#1}}
\newlabel{Fig:Reads_Summary}{{1}{4}}
\@writefile{lof}{\defcounter {refsection}{0}\relax }\@writefile{lof}{\contentsline {figure}{\numberline {2}{\ignorespaces  Summary of primary candidate genes. (A) Summary Venn diagram of possible gene candidates identified through the different analytical approaches outlined. (B) Number of variants per gene grouped according to their likely phenotypic impact as classified by SnpSift. (C) Number of variants per gene grouped according to the type of variant as classified by SnpSift. \relax }}{4}}
\newlabel{Fig:Summary_of_Candidate_Variants}{{2}{4}}
\@writefile{lot}{\defcounter {refsection}{0}\relax }\@writefile{lot}{\contentsline {table}{\numberline {1}{\ignorespaces  Primary candidate genes. A summary of the most promising candidate genes, grouped into three categories \textit  {Nuclear Import Factors}, {Ribosome Biogenesis Factors}, and \textit  {Large ribosomal subunit components}. Genes are specified by their yeast genome IDs alongside their corresponding protein name and a short description. The Panther Protein Family identifier is given in parentheses in the Description column. Approaches by which candidates were identified are tabulated by designated number as outlined in Search Strategy. All candidates showed variants in all clones, the genes' genomic location is given alongside their chromosome number (in parentheses). Total number of mutations over all mutant strains are tabulated, alongside a classification of the impact of found mutations where * = low impact, *** = moderate impact, and ***** = high impact. Notice that total mutations do not compensate for redundant mutations over multiple clones. \relax }}{5}}
\newlabel{Tab:Candidates}{{1}{5}}
\abx@aux@cite{nsr1_first}
\abx@aux@segm{0}{0}{nsr1_first}
\abx@aux@cite{nsr_second}
\abx@aux@segm{0}{0}{nsr_second}
\abx@aux@segm{0}{0}{nsr_second}
\@writefile{toc}{\defcounter {refsection}{0}\relax }\@writefile{toc}{\contentsline {section}{\numberline {3}Results}{6}}
\@writefile{toc}{\defcounter {refsection}{0}\relax }\@writefile{toc}{\contentsline {subsection}{\numberline {3.1}Summary of Data}{6}}
\@writefile{toc}{\defcounter {refsection}{0}\relax }\@writefile{toc}{\contentsline {subsection}{\numberline {3.2}Primary Gene Candidates}{6}}
\@writefile{toc}{\defcounter {refsection}{0}\relax }\@writefile{toc}{\contentsline {section}{\numberline {4}Discussion}{6}}
\@writefile{toc}{\defcounter {refsection}{0}\relax }\@writefile{toc}{\contentsline {subsection}{\numberline {4.1}YGR159C (NSR1) is a nuclear import protein}{6}}
\@writefile{toc}{\defcounter {refsection}{0}\relax }\@writefile{toc}{\contentsline {subsection}{\numberline {4.2}YML103C (NUP188) and YGR119C (NUP57) are constituents of the Nuclear Pore Complex}{6}}
\abx@aux@cite{urb1}
\abx@aux@segm{0}{0}{urb1}
\abx@aux@cite{rsa3}
\abx@aux@segm{0}{0}{rsa3}
\abx@aux@cite{las1l}
\abx@aux@segm{0}{0}{las1l}
\abx@aux@cite{srp40}
\abx@aux@segm{0}{0}{srp40}
\global\mtcsecondpartfalse
\@writefile{toc}{\defcounter {refsection}{0}\relax }\@writefile{toc}{\contentsline {subsection}{\numberline {4.3}Ribosomal Biogenesis Factors}{7}}
\@writefile{toc}{\defcounter {refsection}{0}\relax }\@writefile{toc}{\contentsline {subsection}{\numberline {4.4}Ribosome Constituents}{7}}
\newlabel{LastPage}{{}{7}}
\xdef\lastpage@lastpage{7}
\gdef\lastpage@lastpageHy{}
