YML100W
YDL147W
YNR059W
YDL036C
YNL249C
YBL022C
YDL148C
YHR216W
YKL116C
YGR257C
YOR202W
YDL023C
YMR264W
YLR258W
YNL091W
YOR135C
YGL108C
YDR293C
YLR229C
YKR027W
YNL074C
YGL097W
YDL146W
YBR148W
YBL032W
YNL094W
YIR040C
YJR140W-A
YKL153W
YCR108C
YLR439W
YOL144W
YDL240W
YDL025C
YBR030W
YGR247W
YIL017C
YMR052C-A
YJR023C
YBR015C
YDR490C
YGR157W
YKR096W
YNL304W
YHR020W
YKL005C
YKR067W
YDR048C
YFL067W
YFR043C
YGR110W
YJL044C
YGR128C
YNR052C
YEL077C
YMR165C
YCR087W
YGL062W
tK(UUU)G2
YAR066W
YCR100C
YHR015W
YMR315W
YIL030C
YNR061C
YKR058W
YMR133W
YMR016C
YDL026W
YBR128C
YBR213W
YER188C-A
YJL033W
YLR014C
YOR305W
YMR151W
YKR061W
YLR266C
YNL303W
YGR111W
YKR004C
YHL016C
YGL257C
YKR069W
YMR316W
YML017W
YLL010C
YKR060W
YGL116W
YCR089W
YAR053W
YOR016C
YKR075C
YKL141W
YNL075W
YHL010C
YDL027C
YKR075W-A
YNL079C
YLR093C
YGR097W
YHL008C
YOR126C
YLL014W
YLR081W
YLR099C
YER122C
YHR078W
YBR276C
YMR155W
YGL114W
YLR232W
YBR219C
YKR016W
YLR249W
YKR040C
YDL231C
YLR248W
YNL236W
YKL134C
YER022W
YLL004W
YLR265C
YLR260W
YGL259W
YOL146W
YER096W
YLR234W
YOR129C
YNR065C
YHL030W-A
YER021W
YMR164C
YMR317W
YPL062W
YER118C
YNR075C-A
YCR038C
YAR002W
YFR024C-A
YIL043C
YGL112C
YKL179C
YGR166W
YJR137C
YBR202W
YDL031W
YHR211W
YKR039W
YMR205C
YBL034C
YDL153C
YBR201W
YKL033W-A
YAL068W-A
YAL004W
YER001W
YBR280C
YKR008W
YDL136W
YGR116W
YCL018W
YML132W
YMR126C
YNL209W
YOL137W
YJL225C
YLR392C
YMR122W-A
YNR069C
YDL033C
YBR203W
YDL162C
YGR088W
YIR039C
YLR032W
YDR097C
YMR312W
YNL204C
YAL067W-A
YKR091W
YLR024C
YDL044C
YNL317W
YML020W
YDL195W
YKL033W
YKR063C
YDL030W
YGL096W
YAL063C
YFL009W
YLR221C
YKL174C
YNL083W
YNR067C
YNL088W
YKL012W
YGR162W
YDL216C
YMR157C
YPL003W
YKR072C
YAR064W
YDL150W
YHL012W
YMR135W-A
YPR175W
YLR023C
YMR084W
YLR252W
YMR275C
YBR238C
YNL081C
YER011W
YLR092W
YLR279W
tX(XXX)D
YIL049W
YMR085W
YNL203C
YNL286W
YNL085W
YHL015W-A
YBR218C
YLR188W
YBR014C
YAL069W
YCR097W-A
YHR008C
YMR152W
YGR119C
YLR083C
YNL206C
YKR087C
YBR008C
YGR156W
YIL044C
YMR138W
YOL148C
YOL138C
YKR079C
YDL128W
YJL042W
YER130C
YLR027C
YDL048C
YBL105C
YKR043C
YCR102C
YBR275C
YBL024W
YHL032C
YGR134W
YKL173W
YML107C
YKL014C
YJR161C
YPL174C
YHR056C
YKL181W
YKR044W
YER119C-A
YER119C
YLR256W
YGL095C
YDL090C
YFR057W
YOR205C
YOL151W
YKL015W
YLL006W-A
YJR160C
YGR258C
YKR088C
YLR305C
YNL285W
YMR073C
YGL102C
YLR002C
YOL128C
YOR124C
YKR078W
YJL045W
YHR009C
YHR014W
YMR128W
YBR223C
YLR257W
YER020W
YLR452C
YLR021W
YCR104W
YNR066C
YMR153W
YLR255C
YKL140W
YIR030C
YKR083C
YDL028C
YKL157W
YDR103W
YNL201C
YNL196C
YGR123C
YOR127W
YIL130W
YGR248W
YKR011C
YEL021W
YCR024C-B
YGL110C
YDR150W
YMR313C
YNL338W
YBR208C
YMR162C
YHL031C
YHR012W
YMR315W-A
YIL046W-A
YDL025W-A
YHL048C-A
YDL233W
YOL143C
YGR089W
YGR125W
YML117W
YKL154W
YDR416W
YJR092W
YBR011C
YOL145C
YOR373W
YML108W
YDL245C
YKR023W
YKR081C
YMR311C
YDL164C
YGR249W
YMR309C
YNL205C
YKR018C
YLL008W
YBR215W
YEL063C
YKL225W
YKR031C
YNL097W-A
YKL162C
YFR042W
YHR021W-A
YBR277C
YBR094W
YML102W
YMR086W
YKR064W
YLR233C
YNR058W
YMR076C
YDL157C
YOR112W
YHR017W
YNR077C
YNL210W
YMR136W
YML100W-A
YLR001C
YDL035C
YNL172W
YDL040C
YKL168C
YLR227C
YNL090W
YNR068C
YGL101W
YLR098C
YLR247C
YHR215W
YMR139W
YKL164C
YKL167C
YOL152W
YDL154W
YGR295C
YHR023W
YGR092W
YHR072W
YCR106W
YDR471W
YER069W
YFL024C
YKL198C
YKL163W
YLR434C
YAR070C
YBR239C
YKR020W
YDL199C
YLR094C
YKL169C
YLR433C
YMR154C
tL(CAA)N
YGR161C
YHL034C
YNL291C
YGL256W
YHL030W
YBR212W
YLR251W
YBR201C-A
YLR440C
YPL216W
YNL067W-B
YDR363W-A
YBR272C
YGR167W
YDL152W
YKR082W
YBL017C
YBR216C
YLR090W
YMR160W
YGR121C
YDL248W
YNL283C
YBR237W
YOL140W
YKR005C
YLL005C
YKL002W
YDL239C
YHL014C
YKR028W
YHL048W
YJL043W
YJL089W
YBR282W
YLR296W
YBR214W
YNL089C
YBR200W
YDR104C
YHL007C
YNL290W
YKR077W
YER120W
YKL171W
YKL138C
YLR222C
YLL012W
YLR230W
YDL037C
YKR003W
YFR054C
YJR162C
YJR071W
YKR032W
YLR253W
YGR098C
YLL013C
YMR163C
YKL034W
YGL258W
YLR087C
YGR261C
YBL035C
YKR056W
YKR001C
YKL147C
YNL318C
YLR246W
YBR073W
tC(GCA)G
YLR006C
YKL136W
YBR228W
YJR132W
YLR020C
YNL092W
YGR139W
YKR019C
YNR060W
YKR092C
YMR027W
YFL025C
YML042W
YBL031W
YHL006C
YDL084W
YBR225W
YJL046W
YLR437C
YMR134W
YKR021W
YPR163C
YER127W
YOR125C
YBL026W
YGR121W-A
YKL104C
YAR042W
YLR019W
YHL026C
YKR090W
YGR094W
YKR066C
YGR104C
YIL047C
YCR091W
YKL162C-A
YMR237W
YGR159C
YDL145C
YKL010C
YOR097C
YGL258W-A
YAR068W
YKL161C
YMR130W
YNL242W
YDR007W
YKL175W
YMR135C
YJR131W
YBR226C
YBL029W
tS(AGA)D3
YIL013C
YKR084C
YNL132W
YLR261C
YNL208W
YPR202W
YFR038W
YOR239W
YMR124W
YML104C
YBR210W
YGR266W
YPL189C-A
YCR014C
YDL024C
YCR098C
YMR310C
YFL062W
YJR128W
YFL052W
YJR151C
YBR224W
YGR087C
YMR265C
YLR461W
YLR263W
YDL194W
YIL045W
YKR055W
YNR075W
YMR030W-A
YLR450W
YCR088W
YKR022C
YNL284C
YGL109W
YGR103W
YDR096W
YLR432W
YMR129W
YPL084W
YLR007W
YLR228C
YLR224W
YBR231C
YKL166C
YPL173W
YKL139W
YKR099W
YPL188W
YER123W
YKR029C
YGR109C
YML103C
YKR036C
YNL305C
YER121W
YGR265W
YPL093W
YKR015C
YBL025W
YDL043C
YHR022C
YNL157W
YPL205C
YDR544C
YKR010C
YLL019C
YGR260W
YGR122W
YMR147W
YJR140C
YER124C
YGR251W
YJR134C
YDR106W
YLL066W-B
YLL003W
YKL146W
YNL076W
YDL042C
YNR064C
YBR207W
YJR138W
YOR017W
YMR320W
YGR127W
YMR127C
YDL156W
YLR431C
YBR016W
YIR028W
YDL149W
YGR252W
YPL091W
YDL083C
YBR119W
tL(UAG)L1
YNL288W
YGL260W
YKR071C
YPR116W
YMR207C
YGL118C
YGR129W
YKR100C
YLR337C
YAL063C-A
YFR025C
YDL161W
YHL009C
YGR160W
YHR073W
YDL243C
YIL050W
YBR279W
YGL107C
YKL165C
YKR007W
YNR062C
YER129W
YBL113C
YGR246C
YMR075W
YNR051C
YOR035C
YLR140W
YLR435W
YJL076W
YFR039C
YJR094W-A
YFR020W
YLL015W
YJL110C
YEL077W-A
YDL151C
YMR149W
YER014W
YAR071W
YNL123W
YMR137C
YGL117W
YDR542W
YKR073C
YKL212W
YKL064W
YKL182W
YLR436C
YNL095C
YER125W
YBR235W
YKR054C
YKR041W
YOL136C
YBL037W
YBR234C
YKR086W
YHR214C-E
YCR081W
YNL086W
YDR543C
YKR098C
YDL144C
YLR089C
YLR018C
YDR098C
YLR084C
YLR086W
YBR024W
YHL050C
YKR053C
YCR092C
YGL023C
YHL004W
YML086C
YFR021W
YBR281C
YOL141W
YKR009C
YHL005C
YER024W
YGR075C
YGL059W
YKR050W
YLR220W
YLR264C-A
YGL099W
YGR114C
YGR117C
YHR013C
YPL169C
YHR024C
YMR125W
YLR466C-B
YMR131C
YML110C
YGR099W
YLL007C
YML111W
YDL039C
YDR108W
YHR143W
YDL236W
tX(XXX)L
YHR219W
YBL019W
YKR024C
YHL033C
YML131W
YBR137W
YAL064W
YDL237W
YNL078W
YLR095C
YCR107W
YCR097W
YKL137W
YKR025W
YNL278W
YLR080W
YMR158W-B
YBR211C
YLL043W
YLR235C
YAR050W
YNL233W
YCR084C
YGR108W
YLR097C
YKL032C
YLR016C
tL(CAA)L
YDR259C
YAR073W
YDL051W
YGR090W
YKL176C
YML109W
YOL147C
YNL219C
YNL077W
YBR236C
YBL023C
YGL100W
YKR085C
YOR128C
YPL092W
YNR063W
YMR144W
YLR236C
YLR223C
YMR140W
YHR214W
YMR316C-A
YNL097C
YPL236C
YCR102W-A
YGR271W
YKL203C
YMR319C
YBL113W-A
YLR226W
YIL169C
YLR082C
YGR250C
YFL023W
YGR130C
YNL199C
YGL111W
YKL006W
YGR100W
YAL064C-A
YFL001W